^C:\USERS\ПОЛИНА\DESKTOP\КУРСЫ С++\CONSOLEAPPLICATION3\CONSOLEAPPLICATION3\STDAFX.CPP
C:\USERS\Полина\DESKTOP\Курсы С++\CONSOLEAPPLICATION3\CONSOLEAPPLICATION3\DEBUG\CONSOLEAPPLICATION3.PCH
C:\USERS\Полина\DESKTOP\Курсы С++\CONSOLEAPPLICATION3\CONSOLEAPPLICATION3\DEBUG\VC141.PDB
C:\USERS\Полина\DESKTOP\Курсы С++\CONSOLEAPPLICATION3\CONSOLEAPPLICATION3\DEBUG\VC141.IDB
C:\USERS\Полина\DESKTOP\Курсы С++\CONSOLEAPPLICATION3\CONSOLEAPPLICATION3\DEBUG\STDAFX.OBJ
^C:\USERS\ПОЛИНА\DESKTOP\КУРСЫ С++\CONSOLEAPPLICATION3\CONSOLEAPPLICATION3\CONSOLEAPPLICATION3.CPP
C:\USERS\Полина\DESKTOP\Курсы С++\CONSOLEAPPLICATION3\CONSOLEAPPLICATION3\DEBUG\VC141.PDB
C:\USERS\Полина\DESKTOP\Курсы С++\CONSOLEAPPLICATION3\CONSOLEAPPLICATION3\DEBUG\VC141.IDB
C:\USERS\Полина\DESKTOP\Курсы С++\CONSOLEAPPLICATION3\CONSOLEAPPLICATION3\DEBUG\CONSOLEAPPLICATION3.OBJ
